{
  "director": "Level",
  "directorAttributes": [
    {
      "name": "nextScene",
      "value": "mars3"
    }
  ],
  "background": "#000000",
  "showMouse": false,
  "layout": "default",
  "snapToGrid": {
    "enabled": false,
    "xSpacing": 50,
    "ySpacing": 50,
    "xOffset": 0,
    "yOffset": 0,
    "xCloseness": 10,
    "yCloseness": 10
  },
  "snapToGuides": {
    "enabled": true,
    "closeness": 5,
    "x": [
      
    ],
    "y": [
      
    ]
  },
  "snapToOthers": {
    "enabled": true,
    "xCloseness": 10,
    "yCloseness": 10
  },
  "snapRotation": {
    "enabled": true,
    "step": 15,
    "closeness": 15
  },
  "include": [
    
  ],
  "stages": [
    {
      "name": "main",
      "actors": [
        {
          "costume": "ship",
          "x": 611,
          "y": 230,
          "direction": 180,
          "attributes": [
            {
              "name": "center",
              "value": "40.0x240.0"
            },
            {
              "name": "speedDegrees",
              "value": "-0.4"
            },
            {
              "name": "bulletSpeed",
              "value": "6"
            },
            {
              "name": "shieldTicks",
              "value": "1000"
            },
            {
              "name": "canMoveShielded",
              "value": "false"
            },
            {
              "name": "message",
              "value": ""
            },
            {
              "name": "inwards",
              "value": "true"
            }
          ]
        },
        {
          "costume": "shieldFactory",
          "x": 531,
          "y": 375,
          "direction": 105.00000000000001
        },
        {
          "costume": "shieldFactory",
          "x": 530,
          "y": 105,
          "direction": 59.99999999999999
        },
        {
          "costume": "alienFactory",
          "x": 39,
          "y": 197,
          "attributes": [
            {
              "name": "across",
              "value": "5"
            },
            {
              "name": "down",
              "value": "3"
            },
            {
              "name": "delay",
              "value": "0.1"
            },
            {
              "name": "fireFrequency",
              "value": "300"
            },
            {
              "name": "alienSpeed",
              "value": "1.5"
            },
            {
              "name": "bulletSpeed",
              "value": "3"
            },
            {
              "name": "spacingX",
              "value": "50"
            },
            {
              "name": "spacingY",
              "value": "60"
            },
            {
              "name": "initialDelay",
              "value": "1"
            }
          ]
        },
        {
          "costume": "lifeFactory",
          "x": 600,
          "y": 450,
          "direction": 90,
          "scaleX": 0.75,
          "scaleY": 0.75,
          "attributes": [
            {
              "name": "spacingX",
              "value": "-60"
            },
            {
              "name": "spacingY",
              "value": "0"
            }
          ]
        },
        {
          "costume": "score",
          "x": 320,
          "y": 450,
          "text": "score",
          "scaleX": 0.5,
          "scaleY": 0.5
        },
        {
          "costume": "mothershipFactory",
          "x": 88,
          "y": -42,
          "direction": 329.99999999999994,
          "attributes": [
            {
              "name": "delay",
              "value": "0"
            },
            {
              "name": "ships",
              "value": "3"
            },
            {
              "name": "interval",
              "value": "3"
            },
            {
              "name": "mothershipBirthPeriod",
              "value": "300"
            },
            {
              "name": "mothershipMaxChildren",
              "value": "10"
            },
            {
              "name": "mothershipFireFrequency",
              "value": "100"
            },
            {
              "name": "mothershipVelocity",
              "value": "1.0x3.0"
            },
            {
              "name": "mothershipBulletSpeed",
              "value": "3"
            }
          ]
        },
        {
          "costume": "mars0",
          "x": 40,
          "y": 240
        }
      ]
    }
  ]
}